module gitlab.com/pasiol/mongoUtils

go 1.14

require (
	github.com/Microsoft/go-winio v0.5.0 // indirect
	github.com/aws/aws-sdk-go v1.38.40 // indirect
	github.com/containerd/containerd v1.5.1 // indirect
	github.com/docker/docker v20.10.6+incompatible
	github.com/docker/go-connections v0.4.0
	github.com/google/go-cmp v0.5.5 // indirect
	github.com/gorilla/mux v1.8.0 // indirect
	github.com/klauspost/compress v1.12.2 // indirect
	github.com/kr/text v0.2.0 // indirect
	github.com/moby/term v0.0.0-20201216013528-df9cb8a40635 // indirect
	github.com/morikuni/aec v1.0.0 // indirect
	github.com/opencontainers/image-spec v1.0.1
	github.com/stretchr/testify v1.7.0 // indirect
	github.com/tidwall/pretty v1.1.0 // indirect
	github.com/xdg/scram v1.0.3 // indirect
	github.com/xdg/stringprep v1.0.3 // indirect
	github.com/youmark/pkcs8 v0.0.0-20201027041543-1326539a0a0a // indirect
	gitlab.com/pasiol/dockerUtils4Tests v0.0.0-20210515085922-fbb600d85eef
	go.mongodb.org/mongo-driver v1.5.2
	golang.org/x/crypto v0.0.0-20210513164829-c07d793c2f9a // indirect
	golang.org/x/net v0.0.0-20210510120150-4163338589ed // indirect
	golang.org/x/sync v0.0.0-20210220032951-036812b2e83c // indirect
	golang.org/x/sys v0.0.0-20210514084401-e8d321eab015 // indirect
	golang.org/x/time v0.0.0-20210220033141-f8bda1e9f3ba // indirect
	golang.org/x/xerrors v0.0.0-20200804184101-5ec99f83aff1 // indirect
	google.golang.org/genproto v0.0.0-20210513213006-bf773b8c8384 // indirect
	google.golang.org/grpc v1.37.1 // indirect
	gopkg.in/check.v1 v1.0.0-20201130134442-10cb98267c6c // indirect
	gopkg.in/yaml.v2 v2.4.0 // indirect
	gopkg.in/yaml.v3 v3.0.0-20210107192922-496545a6307b // indirect
)
